// Jest Snapshot v1, https://goo.gl/fbAQLP

exports[`should match snapshot 1`] = `
<div
  className="asset-list-item vote-form-asset-list-item container"
>
  <div
    className="asset-list-item__volume row"
  >
    <div
      className="col"
    >
      <div
        className="progress"
      >
        <div
          aria-valuemax={100}
          aria-valuemin={0}
          aria-valuenow={NaN}
          className="progress-bar"
          role="progressbar"
          style={
            Object {
              "width": "NaN%",
            }
          }
        />
      </div>
    </div>
  </div>
  <div
    className="row"
  >
    <div
      className="align-self-center col-auto"
    >
      <img
        alt=""
        className="asset-list-item__icon"
        src=""
      />
    </div>
    <div
      className="col"
    >
      <div
        className="row"
      >
        <div
          className="text-left col"
        >
          <div
            className="asset-list-item__name"
          >
            Asset
          </div>
          <div
            className="asset-list-item__symbol"
          >
            ASST
          </div>
        </div>
        <div
          className="text-right col-auto"
        >
          <div
            className="asset-list-item__price"
          >
            $ 100.00
          </div>
          <div
            className="asset-list-item__price-difference asset-list-item__price-difference--positive"
          >
            +0.42
            %  
            <span
              className="text-muted"
            >
              7d
            </span>
          </div>
        </div>
      </div>
    </div>
  </div>
</div>
`;
