// Jest Snapshot v1, https://goo.gl/fbAQLP

exports[`should match snapshot 1`] = `
<div
  className="card identity-form"
>
  <form
    className=""
    noValidate={true}
    onSubmit={[Function]}
  >
    <div
      className="form-row"
    >
      <div
        className="col"
      >
        <label
          className="form-label"
        >
          Price
        </label>
        <input
          className="form-control"
          name="price"
          readOnly={true}
          value="undefined $FVT"
        />
        <div
          className="valid-feedback"
        />
      </div>
    </div>
    <div
      className="form-row"
    >
      <div
        className="col"
      >
        <label
          className="form-label"
        >
          $FVT Balance
        </label>
        <div
          className="loader-spinner"
        >
          <div
            className="spinner"
          >
            <div
              className="spinner-border"
              role="status"
            >
              <span
                className="sr-only"
              >
                Loading...
              </span>
            </div>
          </div>
        </div>
        <div
          className="valid-feedback"
        />
      </div>
    </div>
    <div
      className="form-row"
    >
      <div
        className="col"
      >
        <button
          className="btn btn-secondary"
          disabled={false}
          type="submit"
        >
          Mint identity
        </button>
      </div>
    </div>
  </form>
</div>
`;
