// Jest Snapshot v1, https://goo.gl/fbAQLP

exports[`should match snapshot 1`] = `
<div
  className="page identity-page container"
>
  <div
    className="row"
  >
    <div
      className="col-lg-6 col-12"
    >
      <h1
        className="page__title"
      >
        Mint your finance.vote identity
      </h1>
      <div
        className="page__left-content"
      >
        <p>
          In order to mint an identity, you need to burn some $FVT. This is a sybil protection mechanism, a key component of our decentralised voting system.
        </p>
        <p>
          Then you can vote in our voting markets. If you vote correctly, you gain more voting power.
          <br />
          <strong>
            And voting is all about power.
          </strong>
        </p>
      </div>
    </div>
    <div
      className="page__right-content text-right col"
    >
      <div
        className="card identity-form"
      >
        <form
          className=""
          noValidate={true}
          onSubmit={[Function]}
        >
          <div
            className="form-row"
          >
            <div
              className="col"
            >
              <label
                className="form-label"
              >
                Price
              </label>
              <input
                className="form-control"
                name="price"
                readOnly={true}
                value="undefined $FVT"
              />
              <div
                className="valid-feedback"
              />
            </div>
          </div>
          <div
            className="form-row"
          >
            <div
              className="col"
            >
              <label
                className="form-label"
              >
                $FVT Balance
              </label>
              <div
                className="loader-spinner"
              >
                <div
                  className="spinner"
                >
                  <div
                    className="spinner-border"
                    role="status"
                  >
                    <span
                      className="sr-only"
                    >
                      Loading...
                    </span>
                  </div>
                </div>
              </div>
              <div
                className="valid-feedback"
              />
            </div>
          </div>
          <div
            className="form-row"
          >
            <div
              className="col"
            >
              <button
                className="btn btn-secondary"
                disabled={false}
                type="submit"
              >
                Mint identity
              </button>
            </div>
          </div>
        </form>
      </div>
    </div>
  </div>
  <div
    className="row"
  >
    <div
      className="col-lg-10"
    >
      <div
        className="how-to-play"
      >
        <h3
          className="how-to-play__title"
        >
          How to Play
        </h3>
        <div>
          <div
            className="how-to-play__item"
          >
            <img
              alt="Select an identity"
              className="how-to-play__item__icon"
              src="group.svg"
            />
            <div
              className="how-to-play__item__label"
            >
              Select an identity
            </div>
          </div>
          <div
            className="how-to-play__item"
          >
            <img
              alt="Research the projects in the token list"
              className="how-to-play__item__icon"
              src="search.svg"
            />
            <div
              className="how-to-play__item__label"
            >
              Research the projects in the token list
            </div>
          </div>
          <div
            className="how-to-play__item"
          >
            <img
              alt="Spend your budget of vote power ($V), everyone starts with 100 $V. Every vote costs the square of the vote number e.g. 5 votes = 5 x 5 = 25 $V"
              className="how-to-play__item__icon"
              src="vote.svg"
            />
            <div
              className="how-to-play__item__label"
            >
              Spend your budget of vote power ($V), everyone starts with 100 $V. Every vote costs the square of the vote number e.g. 5 votes = 5 x 5 = 25 $V
            </div>
          </div>
          <div
            className="how-to-play__item"
          >
            <img
              alt="Submit your vote"
              className="how-to-play__item__icon"
              src="checked.svg"
            />
            <div
              className="how-to-play__item__label"
            >
              Submit your vote
            </div>
          </div>
          <div
            className="how-to-play__item"
          >
            <img
              alt="Wait till the vote “End Date”. If your token wins, you will a share of the reward pool proportional to the number of your votes."
              className="how-to-play__item__icon"
              src="badge.svg"
            />
            <div
              className="how-to-play__item__label"
            >
              Wait till the vote “End Date”. If your token wins, you will a share of the reward pool proportional to the number of your votes.
            </div>
          </div>
        </div>
      </div>
    </div>
  </div>
</div>
`;
