<svg xmlns="http://www.w3.org/2000/svg" width="86" height="76" viewBox="0 0 86 76">
    <g fill="none" fill-rule="evenodd">
        <g fill-rule="nonzero">
            <g>
                <path fill="#CDBDB2" d="M24.644 69.667L35.825 72.607 35.825 68.762 36.738 67.857 43.127 67.857 43.127 72.381 43.127 75.548 36.281 75.548 27.838 71.929z" transform="translate(-282 -595) translate(282 595)"/>
                <path fill="#CDBDB2" d="M42.899 69.667L53.851 72.607 53.851 68.762 54.764 67.857 61.153 67.857 61.153 72.381 61.153 75.548 54.308 75.548 45.865 71.929z" transform="translate(-282 -595) translate(282 595) matrix(-1 0 0 1 104.052 0)"/>
                <path fill="#393939" d="M36.738 61.298L35.825 68.762 36.966 67.857 48.831 67.857 50.2 68.762 49.288 61.298 47.462 60.167 38.335 60.393z" transform="translate(-282 -595) translate(282 595)"/>
                <path fill="#F89C35" d="M30.577 10.857L36.053 23.524 38.563 60.393 47.462 60.393 50.2 23.524 55.221 10.857z" transform="translate(-282 -595) translate(282 595)"/>
                <path fill="#F89D35" d="M6.618 38.679L0.228 57 16.201 56.095 26.469 56.095 26.469 48.179 26.013 31.893 23.731 33.703z" transform="translate(-282 -595) translate(282 595)"/>
                <path fill="#D87C30" d="M18.711 40.714L37.422 41.167 35.369 50.667 26.469 48.405z" transform="translate(-282 -595) translate(282 595)"/>
                <path fill="#EA8D3A" d="M18.711 40.941L26.469 48.179 26.469 55.417z" transform="translate(-282 -595) translate(282 595)"/>
                <path fill="#F89D35" d="M26.469 48.405L35.597 50.667 38.563 60.393 36.509 61.524 26.469 55.643z" transform="translate(-282 -595) translate(282 595)"/>
                <path fill="#EB8F35" d="M26.469 55.643L24.644 69.667 36.738 61.298z" transform="translate(-282 -595) translate(282 595)"/>
                <path fill="#EA8E3A" d="M37.422 41.167L38.563 60.393 35.14 50.554z" transform="translate(-282 -595) translate(282 595)"/>
                <path fill="#D87C30" d="M15.973 55.869L26.469 55.643 24.644 69.667z" transform="translate(-282 -595) translate(282 595)"/>
                <path fill="#EB8F35" d="M5.248 75.774L24.644 69.667 15.973 55.869 0.228 57z" transform="translate(-282 -595) translate(282 595)"/>
                <path fill="#E8821E" d="M36.053 23.524L26.241 31.667 18.711 40.714 37.422 41.393z" transform="translate(-282 -595) translate(282 595)"/>
                <path fill="#DFCEC3" d="M24.644 69.667L36.738 61.298 35.825 68.536 35.825 72.607 27.61 71.024z" transform="translate(-282 -595) translate(282 595)"/>
                <path fill="#DFCEC3" d="M49.288 69.667L61.153 61.298 60.241 68.536 60.241 72.607 52.026 71.024z" transform="translate(-282 -595) translate(282 595) matrix(-1 0 0 1 110.441 0)"/>
                <path fill="#393939" d="M28.523 45.238L26.013 50.441 34.912 48.179z" transform="translate(-282 -595) translate(282 595) matrix(-1 0 0 1 60.925 0)"/>
                <path fill="#E88F35" d="M5.02 0.226L36.053 23.524 30.805 10.857z" transform="translate(-282 -595) translate(282 595)"/>
                <path fill="#8E5A30" d="M5.02.226L.913 12.666l2.282 13.572-1.598.905 2.282 2.036-1.825 1.583 2.51 2.262-1.598 1.357 3.651 4.524 17.114-5.203c8.367-6.635 12.474-10.027 12.322-10.178-.152-.151-10.496-7.917-31.033-23.298z" transform="translate(-282 -595) translate(282 595)"/>
                <g>
                    <path fill="#F89D35" d="M6.618 38.679L0.228 57 16.201 56.095 26.469 56.095 26.469 48.179 26.013 31.893 23.731 33.703z" transform="translate(-282 -595) translate(282 595) matrix(-1 0 0 1 85.797 0)"/>
                    <path fill="#D87C30" d="M18.711 40.714L37.422 41.167 35.369 50.667 26.469 48.405z" transform="translate(-282 -595) translate(282 595) matrix(-1 0 0 1 85.797 0)"/>
                    <path fill="#EA8D3A" d="M18.711 40.941L26.469 48.179 26.469 55.417z" transform="translate(-282 -595) translate(282 595) matrix(-1 0 0 1 85.797 0)"/>
                    <path fill="#F89D35" d="M26.469 48.405L35.597 50.667 38.563 60.393 36.509 61.524 26.469 55.643z" transform="translate(-282 -595) translate(282 595) matrix(-1 0 0 1 85.797 0)"/>
                    <path fill="#EB8F35" d="M26.469 55.643L24.644 69.667 36.509 61.524z" transform="translate(-282 -595) translate(282 595) matrix(-1 0 0 1 85.797 0)"/>
                    <path fill="#EA8E3A" d="M37.422 41.167L38.563 60.393 35.14 50.554z" transform="translate(-282 -595) translate(282 595) matrix(-1 0 0 1 85.797 0)"/>
                    <path fill="#D87C30" d="M15.973 55.869L26.469 55.643 24.644 69.667z" transform="translate(-282 -595) translate(282 595) matrix(-1 0 0 1 85.797 0)"/>
                    <path fill="#EB8F35" d="M5.248 75.774L24.644 69.667 15.973 55.869 0.228 57z" transform="translate(-282 -595) translate(282 595) matrix(-1 0 0 1 85.797 0)"/>
                    <path fill="#E8821E" d="M36.053 23.524L26.241 31.667 18.711 40.714 37.422 41.393z" transform="translate(-282 -595) translate(282 595) matrix(-1 0 0 1 85.797 0)"/>
                    <path fill="#393939" d="M28.523 45.238L26.013 50.441 34.912 48.179z" transform="translate(-282 -595) translate(282 595) matrix(-1 0 0 1 85.797 0) matrix(-1 0 0 1 60.925 0)"/>
                    <path fill="#E88F35" d="M5.02 0.226L36.053 23.524 30.805 10.857z" transform="translate(-282 -595) translate(282 595) matrix(-1 0 0 1 85.797 0)"/>
                    <path fill="#8E5A30" d="M5.02.226L.913 12.666l2.282 13.572-1.598.905 2.282 2.036-1.825 1.583 2.51 2.262-1.598 1.357 3.651 4.524 17.114-5.203c8.367-6.635 12.474-10.027 12.322-10.178-.152-.151-10.496-7.917-31.033-23.298z" transform="translate(-282 -595) translate(282 595) matrix(-1 0 0 1 85.797 0)"/>
                </g>
            </g>
        </g>
    </g>
</svg>
