{
   "ballots":{
       "1":{
           "LINK":{
              "value":15.2976137471338,
              "difference":21.485686886540364
           },
           "WBTC":{
              "value":18315.168280008515,
              "difference":9.64091430553133
           },
           "DAI":{
              "value":1.002680194313353,
              "difference":-0.11592321690814178
           },
           "UNI":{
              "value":4.154909794208857,
              "difference":15.75747067103745
           },
           "MKR":{
              "value":603.64538968977,
              "difference":16.576395103956976
           },
           "COMP":{
              "value":124.36027519730195,
              "difference":3.017901447155325
           },
           "UMA":{
              "value":8.402581625559105,
              "difference":2.360811932522781
           },
           "YFI":{
              "value":25121.306059476683,
              "difference":34.89754389029222
           },
           "SNX":{
              "value":5.413249389805676,
              "difference":22.52612534450641
           },
           "REN":{
              "value":0.36649916450698894,
              "difference":12.793500883615222
           }
       },
       "2":{
           "LINK":{
              "value":15.2976137471338,
              "difference":21.485686886540364
           },
           "WBTC":{
              "value":18315.168280008515,
              "difference":9.64091430553133
           },
           "DAI":{
              "value":1.002680194313353,
              "difference":-0.11592321690814178
           },
           "UNI":{
              "value":4.154909794208857,
              "difference":15.75747067103745
           },
           "MKR":{
              "value":603.64538968977,
              "difference":16.576395103956976
           },
           "COMP":{
              "value":124.36027519730195,
              "difference":3.017901447155325
           },
           "UMA":{
              "value":8.402581625559105,
              "difference":2.360811932522781
           },
           "YFI":{
              "value":25121.306059476683,
              "difference":34.89754389029222
           },
           "SNX":{
              "value":5.413249389805676,
              "difference":22.52612534450641
           },
           "REN":{
              "value":0.36649916450698894,
              "difference":12.793500883615222
           }
       },
       "3":{
           "LINK":{
              "value":14.251761906046285,
              "difference":-6.836699228881161
           },
           "WBTC":{
              "value":19699.75771324359,
              "difference":7.559796405181775
           },
           "DAI":{
              "value":1.0020516404055226,
              "difference":-0.06268737643319898
           },
           "UNI":{
              "value":3.7753320575420064,
              "difference":-9.135643262241425
           },
           "MKR":{
              "value":571.7303407621001,
              "difference":-5.287052543227723
           },
           "COMP":{
              "value":112.19419797624974,
              "difference":-9.782928834589901
           },
           "UMA":{
              "value":8.166665275797078,
              "difference":-2.8076650757478254
           },
           "YFI":{
              "value":26530.95876581345,
              "difference":5.611383034780532
           },
           "SNX":{
              "value":4.768781435386654,
              "difference":-11.905380816791755
           },
           "REN":{
              "value":0.33892504169692855,
              "difference":-7.523652297312281
           }
       },
       "4":{
           "LINK":{
              "value":13.042131035722345,
              "difference":-8.487588259601473
           },
           "WBTC":{
              "value":19122.269055629837,
              "difference":-2.9314505590366977
           },
           "DAI":{
              "value":1.002179157828497,
              "difference":0.012725633872806133
           },
           "UNI":{
              "value":3.7388695780449135,
              "difference":-0.9658085419069713
           },
           "MKR":{
              "value":517.4529842820905,
              "difference":-9.493523888842331
           },
           "COMP":{
              "value":149.35480916447347,
              "difference":33.12168709124354
           },
           "UMA":{
              "value":7.862016304430339,
              "difference":-3.730396203081854
           },
           "YFI":{
              "value":28446.75133050328,
              "difference":7.220969967954681
           },
           "SNX":{
              "value":5.167880015560648,
              "difference":8.368984521129235
           },
           "REN":{
              "value":0.33235743506924903,
              "difference":-1.9377755608723557
           }
       },
       "5":{
           "LINK":{
              "value":12.866293838907966,
              "difference":-1.3482244299858825
           },
           "WBTC":{
              "value":19343.28433989895,
              "difference":1.1558005152324928
           },
           "DAI":{
              "value":0.99991407567888,
              "difference":-0.2260156910990853
           },
           "UNI":{
              "value":3.4881423895830856,
              "difference":-6.70596240997888
           },
           "MKR":{
              "value":537.9972694048565,
              "difference":3.970270874226186
           },
           "COMP":{
              "value":153.22450182643234,
              "difference":2.5909394438698463
           },
           "UMA":{
              "value":7.414554259537475,
              "difference":-5.691441324545641
           },
           "YFI":{
              "value":25802.585710800675,
              "difference":-9.29514090724055
           },
           "SNX":{
              "value":5.2458673291491635,
              "difference":1.509077481553232
           },
           "REN":{
              "value":0.28838575415750445,
              "difference":-13.230238373509765
           }
       },
       "6":{
           "LINK":{
              "value":12.36496758955058,
              "difference":-3.8964309041455523
           },
           "WBTC":{
              "value":22637.447618114176,
              "difference":17.03001010754121
           },
           "DAI":{
              "value":1.0037733904054236,
              "difference":0.3859646364037143
           },
           "UNI":{
              "value":3.5320534796915286,
              "difference":1.258867477416579
           },
           "MKR":{
              "value":524.0417872997233,
              "difference":-2.5939689471976437
           },
           "COMP":{
              "value":143.37310794124676,
              "difference":-6.42938548845466
           },
           "UMA":{
              "value":9.402097727364836,
              "difference":26.80597374104786
           },
           "YFI":{
              "value":24691.610564240982,
              "difference":-4.305673698797756
           },
           "SNX":{
              "value":6.222957118048915,
              "difference":18.625895921356197
           },
           "REN":{
              "value":0.2709322742380333,
              "difference":-6.052129714402878
           }
       },
       "7":{
           "LINK":{
              "value":12.599808968118772,
              "difference":1.8992478295426483
           },
           "WBTC":{
              "value":27001.635028686476,
              "difference":19.278619587307787
           },
           "DAI":{
              "value":1.0029499700131832,
              "difference":-0.08203249858095872
           },
           "UNI":{
              "value":3.7318170790277962,
              "difference":5.655735409581453
           },
           "MKR":{
              "value":582.8692571069997,
              "difference":11.225721160597129
           },
           "COMP":{
              "value":142.07609373874774,
              "difference":-0.9046425938053326
           },
           "UMA":{
              "value":7.951215488147764,
              "difference":-15.431473712449026
           },
           "YFI":{
              "value":22734.123876560527,
              "difference":-7.92774000135632
           },
           "SNX":{
              "value":7.952172493906479,
              "difference":27.787679443301805
           },
           "REN":{
              "value":0.3343417717503737,
              "difference":23.40418751906636
           }
       },
       "8":{
           "LINK": {
               "value":13.588551800445394,
               "difference":7.847284310646556
           },
           "WBTC": {
               "value":31959.246208475004,
               "difference":18.36041104370744
           },
           "DAI": {
               "value":0.999913828823812,
               "difference":-0.30272110076750136
           },
           "UNI": {
               "value":5.390870370423878,
               "difference":44.45698318708306
           },
           "MKR": {
               "value":681.3719836055932,
               "difference":16.89962633944698
           },
           "COMP": {
               "value":150.24666190278543,
               "difference":5.750839531851071
           },
           "UMA": {
               "value":8.675918459646718,
               "difference":9.11436713769373
           },
           "YFI": {
               "value":23411.413397974964,
               "difference":2.979175819978444
           },
           "SNX": {
               "value":11.383698938089537,
               "difference":43.15206249377184
           },
           "REN": {
               "value":0.33266172355154544,
               "difference":-0.502494256111867
           }
       },
       "9":{
           "LINK": {
               "value":14.568539168845492,
               "difference":7.211860268788733
           },
           "WBTC": {
               "value":35499.663532069666,
               "difference":11.077912477972676
           },
           "DAI": {
               "value":1.0007509955342075,
               "difference":0.08372388562525697
           },
           "UNI": {
               "value":5.228473419721679,
               "difference":-3.0124439940749284
           },
           "MKR": {
               "value":1400.009754129003,
               "difference":105.46922794222013
           },
           "COMP": {
               "value":165.7309344775881,
               "difference":10.305901228488864
           },
           "UMA": {
               "value":8.44948775615682,
               "difference":-2.6098758828021333
           },
           "YFI": {
               "value":29972.036182251093,
               "difference":28.02318114139836
           },
           "SNX": {
               "value":12.86054250868615,
               "difference":12.97331894165907
           },
           "REN": {
               "value":0.3648770799739912,
               "difference":9.68411877342241
           }
       },
       "10":{
           "LINK": {
               "value":21.98915929484917,
               "difference":50.93592459752255
           },
           "WBTC": {
               "value":36566.86537087617,
               "difference":3.006230855800693
           },
           "DAI": {
               "value":0.9994095710604343,
               "difference":-0.13404178259720012
           },
           "UNI": {
               "value":9.165559875071205,
               "difference":75.30087922985183
           },
           "MKR": {
               "value":1426.8971197183864,
               "difference":1.9205127328638445
           },
           "COMP": {
               "value":225.59184730064203,
               "difference":36.11933584502231
           },
           "UMA": {
               "value":11.114566875217179,
               "difference":31.5413099109874
           },
           "YFI": {
               "value":37996.715707991265,
               "difference":26.77388842367755
           },
           "SNX": {
               "value":15.581065279779557,
               "difference":21.1540280610708
           },
           "REN": {
               "value":0.5873567482868435,
               "difference":60.97386778273681
           }
       },
       "11":{
           "LINK":{
              "value":24.448402331871563,
              "difference":11.183888406313269
           },
           "WBTC":{
              "value":34510.615835833654,
              "difference":-5.623258964604126
           },
           "DAI":{
              "value":0.9973998646240688,
              "difference":-0.2010893726215793
           },
           "UNI":{
              "value":11.63271256019837,
              "difference":26.917642989135977
           },
           "MKR":{
              "value":1457.8061327534012,
              "difference":2.166169698423321
           },
           "COMP":{
              "value":247.82728112992118,
              "difference":9.85648820883425
           },
           "UMA":{
              "value":11.692107330305527,
              "difference":5.196247965146758
           },
           "YFI":{
              "value":31752.89822939233,
              "difference":-16.43251886974476
           },
           "SNX":{
              "value":16.94440597186399,
              "difference":8.749983827188753
           },
           "REN":{
              "value":0.6145819536946566,
              "difference":4.635207731454778
           }
      },
      "12":{
           "LINK":{
              "value":22.31756766949477595843041650245331,
              "difference":-4.935053797108215
           },
           "WBTC":{
              "value":33800.16312590907474947784744280996,
              "difference":5.026897969679667
           },
           "DAI":{
              "value":1.0008538446116135975466295735182,
              "difference":0.2478538902349279
           },
           "UNI":{
              "value":17.18975640627456055615685844636979,
              "difference":11.47192574032137
           },
           "MKR":{
              "value":1493.753766525291918485417696488246,
              "difference":9.258221979857416
           },
           "COMP":{
              "value":360.4917837018808017246934493915322,
              "difference":68.12981617483584
           },
           "UMA":{
              "value":11.02788817127498491703172291571922,
              "difference":0.64125810461611995
           },
           "YFI":{
              "value":30147.13432466182997296000367037785,
              "difference":2.5339999163947982
           },
           "SNX":{
              "value":16.94440597186399,
              "difference":8.749983827188753
           },
           "REN":{
              "value":0.6111971139023517495112256955152487,
              "difference":5.67337687696891
           }
      },
      "13":{
           "LINK":{
              "value":25.51611035591533157190633962741914,
              "difference":11.44963025937586
           },
           "YFI":{
              "value": 32715.62796077666835878245275526723,
              "difference":6.03116775231221
           },
           "DAI":{
              "value":1.000583724088125376711190930955817,
              "difference":0.08732650221305404
           },
           "UNI":{
              "value":19.33493323128288082210351096063648,
              "difference":-5.345166026337442
           },
           "MKR":{
              "value":2497.739956338313337449949331917502,
              "difference":69.80581985341038
           },
           "COMP":{
              "value":452.9865775610531180696864969696326,
              "difference": 24.78277375983685
           },
           "UMA":{
              "value":29.17000298365857134333002838298226,
              "difference":158.94079053426442
           },
           "WBTC":{
              "value":46439.64263634491483234013607212559,
              "difference":37.87019399212673
           },
           "SNX":{
              "value":21.30256866071715581522125780984997,
              "difference": 22.05475295680282
           },
           "REN":{
              "value":0.8091063383600605316275236067430487,
              "difference":28.81756094953411
           }
      }
   }
}